FirstName,LastName,Street,Phone,'Estimated time of arrival','Product ID','Product Name','Product SKU',QTY,'Order Grand Total',Comment
mia,hsieh,123,1235678,9:00-12:00,1,matthew-test222,matthew-test111,1.0000,105.0000,46,new,pending,,3aeb30,'Flat Rate - Fixed',0,1,9,0.0000,,,,105.0000,5.0000,,,,0.0000,,100.0000,,,,0.0000,,,,1.0000,1.0000,,,,,,,,,0.0000,,,,5.0000,,,,0.0000,,0.0000,0.0000,100.0000,,,,0.0000,,,,,,,,,1.0000,,,,0,1,92,1,,1,1,,,,57,91,,,,,0.0000,100.0000,105.0000,,0.0000,100.0000,105.0000,1.0000,,ORD-17-10-18-00000001,,TWD,z765432186@gmail.com,mia,hsieh,,,,,,,,TWD,,,TWD,,,,,,27.246.170.64,flatrate_flatrate,TWD,'Main Website Main Website Store ',,,'2017-10-18 04:56:05','2017-10-18 04:56:05',1,,0.0000,0.0000,0.0000,,,,,,5.0000,5.0000,,0,,,74,46,,115,1,'2017-10-18 04:56:05','2017-10-18 04:56:05',simple,ser;{"info_buyRequest":{"uenc":"aHR0cDovLzEzLjU4LjcuMjM0L21hZ2VudG8yL2RlZmF1bHQvY2F0YWxvZ3NlYXJjaC9yZXN1bHQvP3E9VEVTVA%%%%"%%"product":"1"%%"qty":1}},1.0000,0,,,,0,0,,0.0000,0.0000,0.0000,0.0000,,100.0000,100.0000,100.0000,100.0000,0.0000,0.0000,0.0000,0.0000,0.0000,0.0000,0.0000,0.0000,0.0000,0.0000,0.0000,0.0000,100.0000,100.0000,0.0000,0.0000,1.0000,,,,,,100.0000,100.0000,100.0000,100.0000,0.0000,0.0000,,,,,,,,,,,0,,,,,,,,,,,,92,46,8,,,,,,123,123,z765432186@gmail.com,JP,billing,,,,,,,,,,46,46,,,,,,,,,5.0000,5.0000,,,105.0000,,,,105.0000,,,,,0,,checkmo,,,,,,,,,0,,,,,,,0,,,,,,,,,,,,'ser;{"method_title":"Check \/ Money order"%%"payable_to":null%%"mailing_address":null}'
mia,hsieh,'456 456',0995151531,,3,'test 2','test 2',1.0000,395.0000,47,new,pending,,24a729,'Flat Rate - Fixed',0,1,9,0.0000,,,,395.0000,25.0000,,,,0.0000,,370.0000,,,,0.0000,,,,1.0000,1.0000,,,,,,,,,0.0000,,,,25.0000,,,,0.0000,,0.0000,0.0000,370.0000,,,,0.0000,,,,,,,,,5.0000,,,,0,1,94,1,,1,1,,,,86,93,,,,,0.0000,370.0000,395.0000,,0.0000,370.0000,395.0000,5.0000,,ORD-17-10-18-00000002,,TWD,z765432186@gmail.com,mia,hsieh,,,,,,,,TWD,,,TWD,,,,,,,flatrate_flatrate,TWD,'Main Website Main Website Store ',,,'2017-10-18 05:54:17','2017-10-18 05:54:18',3,,0.0000,0.0000,0.0000,,,,,,25.0000,25.0000,,0,,,77,47,,131,1,'2017-10-18 05:54:17','2017-10-18 05:54:17',simple,ser;{"info_buyRequest":{"qty":"1.0000"%%"options":[]}},1.0000,0,,,,0,0,,0.0000,0.0000,0.0000,0.0000,,110.0000,110.0000,110.0000,110.0000,0.0000,0.0000,0.0000,0.0000,0.0000,0.0000,0.0000,0.0000,0.0000,0.0000,0.0000,0.0000,110.0000,110.0000,0.0000,0.0000,1.0000,,,,,,110.0000,110.0000,110.0000,110.0000,0.0000,0.0000,,,,,,,,,,,0,,,,,,,,,,,,94,47,4620,,123,,,123,123,456,z765432186@gmail.com,SB,billing,,,,ML,,,,,,47,47,,,,,,,,,25.0000,25.0000,,,395.0000,,,,395.0000,,,,,0,,checkmo,,,,,,,,,0,,,,,,,0,,,,,,,,,,,,'ser;{"method_title":"Check \/ Money order"%%"payable_to":null%%"mailing_address":null}'
