FirstName,LastName,Street,Phone,'Estimated time of arrival','Product ID','Product Name','Product SKU',QTY,'Order Grand Total',Comment
mia,hsieh,123,1235678,9:00-12:00,1,matthew-test222,matthew-test111,1.0000,105.0000
mia,hsieh,'456 456',0995151531,,3,'test 2','test 2',1.0000,395.0000
