customer_lastname,customer_firstname,grand_total,item1:product_id,item1:sku,item1:qty_invoiced,item1:base_row_invoiced
,,105.0000,1,matthew-test,1.0000,100.0000
ma,matthew,105.0000,1,matthew-test,0.0000,0.0000
,,105.0000,1,matthew-test,0.0000,0.0000
ma,matthew,1000.0000,1,matthew-test,0.0000,0.0000
ma,matthew,945.0000,1,matthew-test,9.0000,900.0000
ma,matthew,1000.0000,,matthew-test,0.0000,0.0000
,,420.0000,1,matthew-test,1.0000,100.0000
kuo,walters,70.0000,2,test,0.0000,0.0000
kuo,walters,70.0000,2,test,0.0000,0.0000
Li,Kelly,420.0000,1,matthew-test,0.0000,0.0000
hsieh,mia,105.0000,1,matthew-test,0.0000,0.0000
陳,正宗,26775.0000,,WDC200,0.0000,0.0000
hsieh,mia,465.0000,3,'test 2',0.0000,0.0000
hsieh,mia,350.0000,1,matthew-test,0.0000,0.0000
hsieh,mia,350.0000,1,matthew-test,0.0000,0.0000
hsieh,mia,465.0000,3,'test 2',0.0000,0.0000
hsieh,mia,35.0000,2,test,0.0000,0.0000
謝,啟堂,26775.0000,,WDC200,0.0000,0.0000
葉,先生,6895.0000,,WDC200,0.0000,0.0000
,,53550.0000,,WDC200,0.0000,0.0000
江,岳龍,39900.0000,,WDC200,0.0000,0.0000
hsieh,mia,35.0000,2,test,0.0000,0.0000
Li,Kelly,210.0000,3,'test 2',0.0000,0.0000
Li,Kelly,210.0000,3,'test 2',0.0000,0.0000
Li,Kelly,210.0000,3,'test 2',0.0000,0.0000
hsieh,mia,350.0000,1,matthew-test,0.0000,0.0000
hsieh,mia,350.0000,1,matthew-test,0.0000,0.0000
hsieh,mia,350.0000,1,matthew-test,0.0000,0.0000
hsieh,mia,920.0000,3,'test 2',0.0000,0.0000
hsieh,mia,395.0000,3,'test 2',0.0000,0.0000
,,100.0000,1,matthew-test111,0.0000,0.0000
hsieh,mia,105.0000,1,matthew-test111,0.0000,0.0000
hsieh,mia,395.0000,3,'test 2',0.0000,0.0000
