customer_lastname,customer_firstname,total_qty_ordered
,,1.0000
ma,matthew,1.0000
,,1.0000
ma,matthew,9.0000
ma,matthew,9.0000
ma,matthew,9.0000
,,3.0000
kuo,walters,2.0000
kuo,walters,2.0000
Li,Kelly,3.0000
hsieh,mia,1.0000
陳,正宗,
hsieh,mia,5.0000
hsieh,mia,4.0000
hsieh,mia,4.0000
hsieh,mia,5.0000
hsieh,mia,1.0000
謝,啟堂,2.0000
葉,先生,2.0000
,,2.0000
江,岳龍,2.0000
hsieh,mia,1.0000
Li,Kelly,1.0000
Li,Kelly,1.0000
Li,Kelly,1.0000
hsieh,mia,4.0000
hsieh,mia,4.0000
hsieh,mia,4.0000
hsieh,mia,10.0000
hsieh,mia,5.0000
,,1.0000
hsieh,mia,1.0000
hsieh,mia,5.0000
